…
timing_summary <- dns_data %>%
  filter(query %in% top_domains) %>%
  split(.$query) %>%
  map_dfr(~ get_timing_stats(.x)) %>%
  filter(cv < 0.3) %>%
  arrange(sd_gap)

timing_summary
```

    # A tibble: 39 × 5
       query                                    n_intervals mean_gap  sd_gap      cv
       <chr>                                          <int>    <dbl>   <dbl>   <dbl>
     1 _ldap._tcp.54540b4e-6ae9-4836-97b1-0f52…           9   15.1   5.58e-4 3.69e-5
     2 _ldap._tcp.dc._msdcs.ccbc.ccbcmd.edu               9   15.1   5.58e-4 3.69e-5
     3 EIVXGJQRTS                                         5    0.748 4.47e-3 5.98e-3
     4 UWPKDLUJMR                                         5    0.748 4.47e-3 5.98e-3
     5 VOAGETTQEU                                         5    0.748 4.47e-3 5.98e-3
     6 input.mozilla.com                                 31    5.00  4.75e-3 9.50e-4
     7 opengts.tx.hec.net                                15    5.00  4.88e-3 9.75e-4
     8 FZZDSQLOIN                                         5    0.744 5.48e-3 7.36e-3
     9 LQMCUWCBUA                                         5    0.744 5.48e-3 7.36e-3
    10 XRTQYXYWZG                                         5    0.744 5.48e-3 7.36e-3
    # ℹ 29 more rows
…
