…
### Шаг 2

#### Определим небезопасные точки доступа

``` r
wifi_clean %>% filter(., Privacy=="OPN")
```

    # A tibble: 42 × 15
       BSSID    First_time_seen     Last_time_seen      channel Speed Privacy Cipher
       <chr>    <dttm>              <dttm>                <int> <int> <chr>   <chr> 
     1 E8:28:C… 2023-07-28 09:13:03 2023-07-28 11:55:38       6   130 OPN     <NA>  
     2 E8:28:C… 2023-07-28 09:13:06 2023-07-28 11:55:12       6   130 OPN     <NA>  
     3 E8:28:C… 2023-07-28 09:13:06 2023-07-28 11:55:11       6   130 OPN     <NA>  
     4 E8:28:C… 2023-07-28 09:13:06 2023-07-28 11:55:10       6    -1 OPN     <NA>  
     5 00:25:0… 2023-07-28 09:13:06 2023-07-28 11:56:21      44    -1 OPN     <NA>  
     6 E8:28:C… 2023-07-28 09:13:09 2023-07-28 11:56:05      11   130 OPN     <NA>  
     7 E8:28:C… 2023-07-28 09:13:13 2023-07-28 10:27:06       6   130 OPN     <NA>  
     8 E8:28:C… 2023-07-28 09:13:13 2023-07-28 10:39:43       6   130 OPN     <NA>  
     9 E8:28:C… 2023-07-28 09:13:17 2023-07-28 11:52:32       1   130 OPN     <NA>  
    10 E8:28:C… 2023-07-28 09:13:50 2023-07-28 11:43:39      11   130 OPN     <NA>  
    # ℹ 32 more rows
    # ℹ 8 more variables: Authentication <chr>, Power <dbl>, Beacons <dbl>,
    #   IV <dbl>, Lan_IP <chr>, ID_length <dbl>, ESSID <chr>, Key <lgl>
…
    ℹ Use `spec()` to retrieve the full column specification for this data.
    ℹ Specify the column types or set `show_col_types = FALSE` to quiet this message.

``` r
wifi_clean_vendor <- wifi_clean %>%
  mutate(
    OUI = substr(BSSID, 1, 8)
  )

wifi_clean_vendor <- wifi_clean_vendor %>%
  left_join(oui, by = "OUI")
wifi_clean_vendor
```

    # A tibble: 167 × 18
       BSSID    First_time_seen     Last_time_seen      channel Speed Privacy Cipher
       <chr>    <dttm>              <dttm>                <int> <int> <chr>   <chr> 
     1 BE:F1:7… 2023-07-28 09:13:03 2023-07-28 11:50:50       1   195 WPA2    CCMP  
     2 6E:C7:E… 2023-07-28 09:13:03 2023-07-28 11:55:12       1   130 WPA2    CCMP  
     3 9A:75:A… 2023-07-28 09:13:03 2023-07-28 11:53:31       1   360 WPA2    CCMP  
     4 4A:EC:1… 2023-07-28 09:13:03 2023-07-28 11:04:01       7   360 WPA2    CCMP  
     5 D2:6D:5… 2023-07-28 09:13:03 2023-07-28 10:30:19       6   130 WPA2    CCMP  
     6 E8:28:C… 2023-07-28 09:13:03 2023-07-28 11:55:38       6   130 OPN     <NA>  
     7 BE:F1:7… 2023-07-28 09:13:03 2023-07-28 11:50:44      11   195 WPA2    CCMP  
     8 0A:C5:E… 2023-07-28 09:13:03 2023-07-28 11:36:31      11   130 WPA2    CCMP  
     9 38:1A:5… 2023-07-28 09:13:03 2023-07-28 10:25:02      11   130 WPA2    CCMP  
    10 BE:F1:7… 2023-07-28 09:13:03 2023-07-28 10:29:21       1   195 WPA2    CCMP  
    # ℹ 157 more rows
    # ℹ 11 more variables: Authentication <chr>, Power <dbl>, Beacons <dbl>,
    #   IV <dbl>, Lan_IP <chr>, ID_length <dbl>, ESSID <chr>, Key <lgl>, OUI <chr>,
    #   Short_name <chr>, Full_name <chr>
…
ap_duration
```

    # A tibble: 167 × 3
       BSSID             ESSID         total_time_on_air_sec
       <chr>             <chr>                         <dbl>
     1 00:25:00:FF:94:73 <NA>                           9795
     2 E8:28:C1:DD:04:52 MIREA_HOTSPOT                  9776
     3 E8:28:C1:DC:B2:52 MIREA_HOTSPOT                  9755
     4 08:3A:2F:56:35:FE <NA>                           9746
     5 6E:C7:EC:16:DA:1A Cnet                           9729
     6 E8:28:C1:DC:B2:50 MIREA_GUESTS                   9726
     7 48:5B:39:F9:7A:48 <NA>                           9725
     8 E8:28:C1:DC:B2:51 <NA>                           9725
     9 E8:28:C1:DC:FF:F2 <NA>                           9724
    10 8E:55:4A:85:5B:01 Vladimir                       9723
    # ℹ 157 more rows
…
wifi_beacon
```

    # A tibble: 124 × 5
       BSSID             ESSID                total_beacons duration_sec beacon_rate
       <chr>             <chr>                        <dbl>        <dbl>       <dbl>
     1 F2:30:AB:E9:03:ED iPhone (Uliana)                  6            7       0.857
     2 B2:CF:C0:00:4A:60 Михаил's Galaxy M32              4            5       0.8  
     3 3A:DA:00:F9:0C:02 iPhone XS Max 🦊🐱🦊             5            9       0.556
     4 00:3E:1A:5D:14:45 MT_FREE                          1            2       0.5  
     5 02:BC:15:7E:D5:DC MT_FREE                          1            2       0.5  
     6 76:C5:A0:70:08:96 <NA>                             1            2       0.5  
     7 D2:25:91:F6:6C:D8 Саня                             5           13       0.385
     8 BE:F1:71:D6:10:D7 C322U21 0566                  1647         9461       0.174
     9 00:03:7A:1A:03:56 MT_FREE                          1            6       0.167
    10 38:1A:52:0D:84:D7 EBFCD57F-EE81fI_DL_…           704         4319       0.163
    # ℹ 114 more rows
…
#### Определить производителя для каждого обнаруженного устройства

``` r
user_oui <- user_clean %>%  mutate(
    OUI = substr(Station_MAC, 1, 8)
  )

user_with_vendor <- user_oui %>%
  left_join(oui, by = "OUI")

user_with_vendor
```

    # A tibble: 12,081 × 10
       Station_MAC       First_time_seen     Last_time_seen      Power Packets BSSID
       <chr>             <dttm>              <dttm>              <int>   <dbl> <chr>
     1 CA:66:3B:8F:56:DD 2023-07-28 09:13:03 2023-07-28 10:59:44   -33     858 BE:F…
     2 96:35:2D:3D:85:E6 2023-07-28 09:13:03 2023-07-28 09:13:03   -65       4 (not…
     3 5C:3A:45:9E:1A:7B 2023-07-28 09:13:03 2023-07-28 11:51:54   -39     432 BE:F…
     4 C0:E4:34:D8:E7:E5 2023-07-28 09:13:03 2023-07-28 11:53:16   -61     958 BE:F…
     5 5E:8E:A6:5E:34:81 2023-07-28 09:13:04 2023-07-28 09:13:04   -53       1 (not…
     6 10:51:07:CB:33:E7 2023-07-28 09:13:05 2023-07-28 11:56:06   -43     344 (not…
     7 68:54:5A:40:35:9E 2023-07-28 09:13:06 2023-07-28 11:50:50   -31     163 1E:9…
     8 74:4C:A1:70:CE:F7 2023-07-28 09:13:06 2023-07-28 09:20:01   -71       3 E8:2…
     9 8A:A3:5A:33:76:57 2023-07-28 09:13:06 2023-07-28 10:20:27   -74     115 00:2…
    10 CA:54:C4:8B:B5:3A 2023-07-28 09:13:06 2023-07-28 11:55:04   -65     437 00:2…
    # ℹ 12,071 more rows
    # ℹ 4 more variables: Probed_ESSIDs <chr>, OUI <chr>, Short_name <chr>,
    #   Full_name <chr>
…
non_randomized_devices <- user_with_vendor %>%
  mutate(
    is_global = !is_locally_administered(Station_MAC)
  ) %>%
  filter(is_global) %>%
  select(Station_MAC, OUI, Short_name, Full_name, Probed_ESSIDs) %>%
  distinct()

non_randomized_devices
```

    # A tibble: 220 × 5
       Station_MAC       OUI      Short_name     Full_name             Probed_ESSIDs
       <chr>             <chr>    <chr>          <chr>                 <chr>        
     1 5C:3A:45:9E:1A:7B 5C:3A:45 "ChongqingFug" Chongqing Fugui Elec… C322U21 0566 
     2 C0:E4:34:D8:E7:E5 C0:E4:34 "AzureWaveTec" AzureWave Technology… C322U13 3965 
     3 10:51:07:CB:33:E7 10:51:07 "Intel       " Intel Corporate       <NA>         
     4 68:54:5A:40:35:9E 68:54:5A "Intel       " Intel Corporate       C322U06 5179…
     5 74:4C:A1:70:CE:F7 74:4C:A1 "LiteonTechno" Liteon Technology Co… <NA>         
     6 BC:F1:71:D4:DB:04 BC:F1:71 "Intel       " Intel Corporate       <NA>         
     7 4C:44:5B:14:76:E3 4C:44:5B "Intel       " Intel Corporate       <NA>         
     8 A0:E7:0B:AE:D5:44 A0:E7:0B "Intel       " Intel Corporate       AndroidAP177B
     9 00:95:69:E7:7F:35 00:95:69 "LSDSciencean" LSD Science and Tech… nvripcsuite  
    10 00:95:69:E7:7C:ED 00:95:69 "LSDSciencean" LSD Science and Tech… nvripcsuite  
    # ℹ 210 more rows
…
device_clusters
```

    # A tibble: 1,831 × 5
       Station_MAC       ESSID         first               last                power
       <chr>             <chr>         <dttm>              <dttm>              <dbl>
     1 00:90:4C:E6:54:54 "Redmi"       2023-07-28 09:16:59 2023-07-28 10:21:15   -65
     2 00:95:69:E7:7C:ED "nvripcsuite" 2023-07-28 09:13:11 2023-07-28 11:56:13   -55
     3 00:95:69:E7:7D:21 "nvripcsuite" 2023-07-28 09:13:15 2023-07-28 11:56:17   -33
     4 00:95:69:E7:7F:35 "nvripcsuite" 2023-07-28 09:13:11 2023-07-28 11:56:07   -69
     5 00:F4:8D:F7:C5:19 "Hornet24"    2023-07-28 10:45:04 2023-07-28 11:43:26   -73
     6 00:F4:8D:F7:C5:19 "Redmi 12"    2023-07-28 10:45:04 2023-07-28 11:43:26   -73
     7 02:00:00:00:00:00 "CPPK_FREE"   2023-07-28 09:54:40 2023-07-28 11:55:36   -67
     8 02:00:00:00:00:00 "MIREA"       2023-07-28 09:54:40 2023-07-28 11:55:36   -67
     9 02:00:00:00:00:00 "MIREA_HOTSP… 2023-07-28 09:54:40 2023-07-28 11:55:36   -67
    10 02:00:00:00:00:00 "\\xAC\\xBA\… 2023-07-28 09:54:40 2023-07-28 11:55:36   -67
    # ℹ 1,821 more rows
…
