…
$ height     <int> 172, 167, 96, 202, 150, 178, 165, 97, 183, 182, 188, 180, 228, 180, …
$ mass       <dbl> 77.0, 75.0, 32.0, 136.0, 49.0, 120.0, 75.0, 32.0, 84.0, 77.0, 84.0, …
$ hair_color <chr> "blond", NA, NA, "none", "brown", "brown, grey", "brown", NA, "black…
$ skin_color <chr> "fair", "gold", "white, blue", "white", "light", "light", "light", "…
$ eye_color  <chr> "blue", "yellow", "red", "yellow", "brown", "blue", "blue", "red", "…
$ birth_year <dbl> 19.0, 112.0, 33.0, 41.9, 19.0, 52.0, 47.0, NA, 24.0, 57.0, 41.9, 64.…
$ sex        <chr> "male", "none", "none", "male", "female", "male", "female", "none", …
$ gender     <chr> "masculine", "masculine", "masculine", "masculine", "feminine", "mas…
$ homeworld  <chr> "Tatooine", "Tatooine", "Naboo", "Tatooine", "Alderaan", "Tatooine",…
$ species    <chr> "Human", "Droid", "Droid", "Human", "Human", "Human", "Human", "Droi…
$ films      <list> <"A New Hope", "The Empire Strikes Back", "Return of the Jedi", "Re…
$ vehicles   <list> <"Snowspeeder", "Imperial Speeder Bike">, <>, <>, <>, "Imperial Spe…
$ starships  <list> <"X-wing", "Imperial shuttle">, <>, <>, "TIE Advanced x1", <>, <>, …
> starwars %>% select(., species) %>% unique(.)
# A tibble: 38 × 1
   species       
   <chr>         
 1 Human         
 2 Droid         
 3 Wookiee       
 4 Rodian        
 5 Hutt          
 6 NA            
 7 Yoda's species
 8 Trandoshan    
 9 Mon Calamari  
10 Ewok          
# ℹ 28 more rows
# ℹ Use `print(n = ...)` to see more rows
…
  name       
  <chr>      
1 Yarael Poof
> starwars %>% 
+     arrange(desc(height)) %>% 
+     slice(1) %>% 
+     select(name)
# A tibble: 1 × 1
  name       
  <chr>      
1 Yarael Poof
> 
> 
> starwars %>% filter(height < 170)
# A tibble: 22 × 14
   name    height  mass hair_color skin_color eye_color birth_year sex   gender homeworld
   <chr>    <int> <dbl> <chr>      <chr>      <chr>          <dbl> <chr> <chr>  <chr>    
 1 C-3PO      167    75 NA         gold       yellow           112 none  mascu… Tatooine 
 2 R2-D2       96    32 NA         white, bl… red               33 none  mascu… Naboo    
 3 Leia O…    150    49 brown      light      brown             19 fema… femin… Alderaan 
 4 Beru W…    165    75 brown      light      blue              47 fema… femin… Tatooine 
 5 R5-D4       97    32 NA         white, red red               NA none  mascu… Tatooine 
 6 Yoda        66    17 white      green      brown            896 male  mascu… NA       
 7 Mon Mo…    150    NA auburn     fair       blue              48 fema… femin… Chandrila
 8 Wicket…     88    20 brown      brown      brown              8 male  mascu… Endor    
 9 Nien N…    160    68 none       grey       black             NA male  mascu… Sullust  
10 Watto      137    NA black      blue, grey yellow            NA male  mascu… Toydaria 
# ℹ 12 more rows
# ℹ 4 more variables: species <chr>, films <list>, vehicles <list>, starships <list>
# ℹ Use `print(n = ...)` to see more rows
> 
> starwars %>% mutate(., imt = mass / (height^2)) %>% select(., name, imt)
# A tibble: 87 × 2
   name                   imt
   <chr>                <dbl>
 1 Luke Skywalker     0.00260
 2 C-3PO              0.00269
 3 R2-D2              0.00347
 4 Darth Vader        0.00333
 5 Leia Organa        0.00218
 6 Owen Lars          0.00379
 7 Beru Whitesun Lars 0.00275
 8 R5-D4              0.00340
 9 Biggs Darklighter  0.00251
10 Obi-Wan Kenobi     0.00232
# ℹ 77 more rows
# ℹ Use `print(n = ...)` to see more rows
> starwars %>% 
+     mutate("I" = mass / height ^ 2) %>% 
+     select(name, I)
# A tibble: 87 × 2
   name                     I
   <chr>                <dbl>
 1 Luke Skywalker     0.00260
 2 C-3PO              0.00269
 3 R2-D2              0.00347
 4 Darth Vader        0.00333
 5 Leia Organa        0.00218
 6 Owen Lars          0.00379
 7 Beru Whitesun Lars 0.00275
 8 R5-D4              0.00340
 9 Biggs Darklighter  0.00251
10 Obi-Wan Kenobi     0.00232
# ℹ 77 more rows
# ℹ Use `print(n = ...)` to see more rows
…
 4 Owen Lars             0.674
 5 Darth Vader           0.673
 6 Jek Tono Porkins      0.611
 7 Bossk                 0.595
 8 Tarfful               0.581
 9 Dexter Jettster       0.515
10 Chewbacca             0.491
> 
> 
> 
> 
> starwars %>% 
+     group_by(., species) %>% 
+     summarise(., mean(height))
# A tibble: 38 × 2
   species   `mean(height)`
   <chr>              <dbl>
 1 Aleena               79 
 2 Besalisk            198 
 3 Cerean              198 
 4 Chagrian            196 
 5 Clawdite            168 
 6 Droid                NA 
 7 Dug                 112 
 8 Ewok                 88 
 9 Geonosian           183 
10 Gungan              209.
# ℹ 28 more rows
# ℹ Use `print(n = ...)` to see more rows
…
